{
    "/js/app.js": "/js/app.js",
    "/css/app.css": "/css/app.css",
    "/js/auth.d4e0cb51732a75b8c480.js": "/js/auth.d4e0cb51732a75b8c480.js",
    "/js/backoffice.06e2f12411450a090a8c.js": "/js/backoffice.06e2f12411450a090a8c.js",
    "/js/content-clock.624c8a1192f5301026da.js": "/js/content-clock.624c8a1192f5301026da.js",
    "/js/content-informative.2d2940da8a7dd6cad7ee.js": "/js/content-informative.2d2940da8a7dd6cad7ee.js",
    "/js/dashboard.886a82f2f99ad91a48c6.js": "/js/dashboard.886a82f2f99ad91a48c6.js",
    "/js/datatable.69eb112cff8ae9062051.js": "/js/datatable.69eb112cff8ae9062051.js",
    "/js/device.df1161d6e87401771d94.js": "/js/device.df1161d6e87401771d94.js",
    "/js/donature.18be1522d3c566ca031b.js": "/js/donature.18be1522d3c566ca031b.js",
    "/js/event.2e38f085a67eaf9674d4.js": "/js/event.2e38f085a67eaf9674d4.js",
    "/js/footer-backoffice.af4afde4b7a76d8f62e3.js": "/js/footer-backoffice.af4afde4b7a76d8f62e3.js",
    "/js/image-background.aac8cef8b8170d683ddd.js": "/js/image-background.aac8cef8b8170d683ddd.js",
    "/js/login.5e283415d9fae18400df.js": "/js/login.5e283415d9fae18400df.js",
    "/js/mosque.89803b51ecf44b82c228.js": "/js/mosque.89803b51ecf44b82c228.js",
    "/js/pagination.0a817dc3740388f66aad.js": "/js/pagination.0a817dc3740388f66aad.js",
    "/js/preacher.bd094dbd4e33f7272d7d.js": "/js/preacher.bd094dbd4e33f7272d7d.js",
    "/js/select2.36a84d2e2fc082804dc5.js": "/js/select2.36a84d2e2fc082804dc5.js",
    "/js/setting-general.846adbb5a3d3a96b97f8.js": "/js/setting-general.846adbb5a3d3a96b97f8.js",
    "/js/sidebar-backoffice.950f8eb2c96d16541d58.js": "/js/sidebar-backoffice.950f8eb2c96d16541d58.js",
    "/js/step1-verification.ce4b6352eeb7151c55d5.js": "/js/step1-verification.ce4b6352eeb7151c55d5.js",
    "/js/step2-verification.e346a64f4cba3597a466.js": "/js/step2-verification.e346a64f4cba3597a466.js",
    "/js/step3-verification.ce308540cd048772fdba.js": "/js/step3-verification.ce308540cd048772fdba.js",
    "/js/step4-verification.45aadc23f1c30c7a04f1.js": "/js/step4-verification.45aadc23f1c30c7a04f1.js",
    "/js/takmir.98999b1648c7fa547166.js": "/js/takmir.98999b1648c7fa547166.js",
    "/js/text-arabic.9c8071b1df5c8571f0b1.js": "/js/text-arabic.9c8071b1df5c8571f0b1.js",
    "/js/text-info.0da21d0181da7627f87a.js": "/js/text-info.0da21d0181da7627f87a.js",
    "/js/text-running.c782dc0ccd5b7bd7024a.js": "/js/text-running.c782dc0ccd5b7bd7024a.js",
    "/js/topbar-backoffice.c7f1f966628e5af18125.js": "/js/topbar-backoffice.c7f1f966628e5af18125.js",
    "/js/verification.843ba42a2ef0dc6790db.js": "/js/verification.843ba42a2ef0dc6790db.js",
    "/vendors~js/donature~js/event~js/image-background~js/preacher~js/text-arabic~js/text-info~js/text-running.f82773b636ac259dc579.js": "/vendors~js/donature~js/event~js/image-background~js/preacher~js/text-arabic~js/text-info~js/text-running.f82773b636ac259dc579.js",
    "/vendors~js/image-background.bd6ebed391c57b0cc916.js": "/vendors~js/image-background.bd6ebed391c57b0cc916.js",
    "/vendors~js/setting-general.a29700fa25861af78e5c.js": "/vendors~js/setting-general.a29700fa25861af78e5c.js"
}
